OperandA,OperandB,Ctrl_Mult,Ctrl_Div,interrupt,result,exception
128,64,0,1,0,2,0
256,-128,0,1,0,-2,0
512,256,0,1,0,2,0
-1024,512,0,1,0,-2,0
2048,1024,0,1,0,2,0
4096,-2048,0,1,0,-2,0
8192,4096,0,1,0,2,0
-16384,8192,0,1,0,-2,0
32768,16384,0,1,0,2,0
-2147483648,2,0,1,0,-1073741824,0
